{
  "kind": "collectionType",
  "collectionName": "researches",
  "info": {
    "name": "Researches"
  },
  "options": {
    "increments": true,
    "timestamps": true
  },
  "attributes": {
    "Title": {
      "type": "string"
    },
    "dateEnd": {
      "type": "date"
    },
    "types_of_tests": {
      "collection": "types-of-tests"
    },
    "samples": {
      "collection": "samples"
    },
    "ownerOrg": {
      "model": "organization"
    },
    "participantOrgs": {
      "collection": "organization"
    },
    "numberOfTests": {
      "type": "integer",
      "min": 1
    },
    "numberOfLaboratory": {
      "type": "integer",
      "min": 1
    },
    "numberOfSamples": {
      "type": "integer",
      "min": 1
    }
  }
}
